{
  "page": 1,
  "total_results": 83983,
  "total_pages": 4200,
  "results": [
    {
      "original_name": "The Flash",
      "id": 60735,
      "name": "The Flash",
      "popularity": 272.226,
      "vote_count": 2787,
      "vote_average": 6.6,
      "first_air_date": "2014-10-07",
      "poster_path": "/fki3kBlwJzFp8QohL43g9ReV455.jpg",
      "genre_ids": [
        18,
        10765
      ],
      "original_language": "en",
      "backdrop_path": "/jC1KqsFx8ZyqJyQa2Ohi7xgL7XC.jpg",
      "overview": "After a particle accelerator causes a freak storm, CSI Investigator Barry Allen is struck by lightning and falls into a coma. Months later he awakens with the power of super speed, granting him the ability to move through Central City like an unseen guardian angel. Though initially excited by his newfound powers, Barry is shocked to discover he is not the only \"meta-human\" who was created in the wake of the accelerator explosion -- and not everyone is using their new powers for good. Barry partners with S.T.A.R. Labs and dedicates his life to protect the innocent. For now, only a few close friends and associates know that Barry is literally the fastest man alive, but it won't be long before the world learns what Barry Allen has become...The Flash.",
      "origin_country": [
        "US"
      ]
    },
    {
      "original_name": "Fear the Walking Dead",
      "genre_ids": [
        18,
        27
      ],
      "name": "Fear the Walking Dead",
      "popularity": 227.169,
      "origin_country": [
        "US"
      ],
      "vote_count": 988,
      "first_air_date": "2015-08-23",
      "backdrop_path": "/nUXzdD2Jo3wV9Q7mIZjK46Yyty4.jpg",
      "original_language": "en",
      "id": 62286,
      "vote_average": 6.3,
      "overview": "What did the world look like as it was transforming into the horrifying apocalypse depicted in \"The Walking Dead\"? This spin-off set in Los Angeles, following new characters as they face the beginning of the end of the world, will answer that question.",
      "poster_path": "/lZMb3R3e5vqukPbeDMeyYGf2ZNG.jpg"
    },
    {
      "original_name": "Arrow",
      "id": 1412,
      "name": "Arrow",
      "popularity": 216.308,
      "vote_count": 2583,
      "vote_average": 5.8,
      "first_air_date": "2012-10-10",
      "poster_path": "/mo0FP1GxOFZT4UDde7RFDz5APXF.jpg",
      "genre_ids": [
        80,
        18,
        9648,
        10759
      ],
      "original_language": "en",
      "backdrop_path": "/dKxkwAJfGuznW8Hu0mhaDJtna0n.jpg",
      "overview": "Spoiled billionaire playboy Oliver Queen is missing and presumed dead when his yacht is lost at sea. He returns five years later a changed man, determined to clean up the city as a hooded vigilante armed with a bow.",
      "origin_country": [
        "US"
      ]
    },
    {
      "original_name": "Family Guy",
      "genre_ids": [
        16,
        35
      ],
      "name": "Family Guy",
      "popularity": 179.932,
      "origin_country": [
        "US"
      ],
      "vote_count": 1597,
      "first_air_date": "1999-01-31",
      "backdrop_path": "/3OFrs1ets87VmRvG78Zg5eJTZeq.jpg",
      "original_language": "en",
      "id": 1434,
      "vote_average": 6.5,
      "overview": "Sick, twisted, politically incorrect and Freakin' Sweet animated series featuring the adventures of the dysfunctional Griffin family. Bumbling Peter and long-suffering Lois have three kids. Stewie (a brilliant but sadistic baby bent on killing his mother and taking over the world), Meg (the oldest, and is the most unpopular girl in town) and Chris (the middle kid, he's not very bright but has a passion for movies). The final member of the family is Brian - a talking dog and much more than a pet, he keeps Stewie in check whilst sipping Martinis and sorting through his own life issues.",
      "poster_path": "/gBGUL1UTUNmdRQT8gA1LUV4yg39.jpg"
    },
    {
      "original_name": "The Boys",
      "genre_ids": [
        10759,
        10765
      ],
      "name": "The Boys",
      "popularity": 184.11,
      "origin_country": [
        "US"
      ],
      "vote_count": 101,
      "first_air_date": "2019-07-25",
      "backdrop_path": "/bI37vIHSH7o4IVkq37P8cfxQGMx.jpg",
      "original_language": "en",
      "id": 76479,
      "vote_average": 8.3,
      "overview": "A group of vigilantes known informally as “The Boys” set out to take down corrupt superheroes with no more than blue-collar grit and a willingness to fight dirty.",
      "poster_path": "/dzOxNbbz1liFzHU1IPvdgUR647b.jpg"
    },
    {
      "original_name": "Supernatural",
      "genre_ids": [
        18,
        9648,
        10765
      ],
      "name": "Supernatural",
      "popularity": 134.032,
      "origin_country": [
        "US"
      ],
      "vote_count": 1869,
      "first_air_date": "2005-09-13",
      "backdrop_path": "/o9OKe3M06QMLOzTl3l6GStYtnE9.jpg",
      "original_language": "en",
      "id": 1622,
      "vote_average": 7.3,
      "overview": "When they were boys, Sam and Dean Winchester lost their mother to a mysterious and demonic supernatural force. Subsequently, their father raised them to be soldiers. He taught them about the paranormal evil that lives in the dark corners and on the back roads of America ... and he taught them how to kill it. Now, the Winchester brothers crisscross the country in their '67 Chevy Impala, battling every kind of supernatural threat they encounter along the way. ",
      "poster_path": "/3iFm6Kz7iYoFaEcj4fLyZHAmTQA.jpg"
    },
    {
      "original_name": "Gotham",
      "genre_ids": [
        80,
        18,
        14
      ],
      "name": "Gotham",
      "popularity": 134.154,
      "origin_country": [
        "US"
      ],
      "vote_count": 1142,
      "first_air_date": "2014-09-22",
      "backdrop_path": "/mKBP1OCgCG0jw8DwVYlnYqVILtc.jpg",
      "original_language": "en",
      "id": 60708,
      "vote_average": 6.9,
      "overview": "Before there was Batman, there was GOTHAM. \n\nEveryone knows the name Commissioner Gordon. He is one of the crime world's greatest foes, a man whose reputation is synonymous with law and order. But what is known of Gordon's story and his rise from rookie detective to Police Commissioner? What did it take to navigate the multiple layers of corruption that secretly ruled Gotham City, the spawning ground of the world's most iconic villains? And what circumstances created them – the larger-than-life personas who would become Catwoman, The Penguin, The Riddler, Two-Face and The Joker? ",
      "poster_path": "/4XddcRDtnNjYmLRMYpbrhFxsbuq.jpg"
    },
    {
      "original_name": "Stranger Things",
      "genre_ids": [
        18,
        9648,
        10765
      ],
      "name": "Stranger Things",
      "popularity": 128.828,
      "origin_country": [
        "US"
      ],
      "vote_count": 2525,
      "first_air_date": "2016-07-15",
      "backdrop_path": "/56v2KjBlU4XaOv9rVYEQypROD7P.jpg",
      "original_language": "en",
      "id": 66732,
      "vote_average": 8.3,
      "overview": "When a young boy vanishes, a small town uncovers a mystery involving secret experiments, terrifying supernatural forces, and one strange little girl.",
      "poster_path": "/x2LSRK2Cm7MZhjluni1msVJ3wDF.jpg"
    },
    {
      "original_name": "Marvel's Agents of S.H.I.E.L.D.",
      "id": 1403,
      "name": "Marvel's Agents of S.H.I.E.L.D.",
      "popularity": 135.431,
      "vote_count": 1343,
      "vote_average": 6.8,
      "first_air_date": "2013-09-24",
      "poster_path": "/cXiETfFK1BTLest5fhTLfDLRdL6.jpg",
      "genre_ids": [
        18,
        10765,
        10759
      ],
      "original_language": "en",
      "backdrop_path": "/iWopHyAvuIDjGX10Yc3nn6UEebW.jpg",
      "overview": "Agent Phil Coulson of S.H.I.E.L.D. (Strategic Homeland Intervention, Enforcement and Logistics Division) puts together a team of agents to investigate the new, the strange and the unknown around the globe, protecting the ordinary from the extraordinary.",
      "origin_country": [
        "US"
      ]
    },
    {
      "original_name": "The 100",
      "id": 48866,
      "name": "The 100",
      "popularity": 122.715,
      "vote_count": 1655,
      "vote_average": 6.5,
      "first_air_date": "2014-03-19",
      "poster_path": "/wBzNjurA8ijJPF21Ggs9nbviIzi.jpg",
      "genre_ids": [
        18,
        10765
      ],
      "original_language": "en",
      "backdrop_path": "/qYTIuJJ7fIehicAt3bl0vW70Sq6.jpg",
      "overview": "100 years in the future, when the Earth has been abandoned due to radioactivity, the last surviving humans live on an ark orbiting the planet — but the ark won't last forever. So the repressive regime picks 100 expendable juvenile delinquents to send down to Earth to see if the planet is still habitable.",
      "origin_country": [
        "US"
      ]
    },
    {
      "original_name": "Wu Assassins",
      "genre_ids": [
        80,
        18,
        10759
      ],
      "name": "Wu Assassins",
      "popularity": 117.532,
      "origin_country": [
        "US"
      ],
      "vote_count": 14,
      "first_air_date": "2019-08-08",
      "backdrop_path": "/cUfAQQPUINNzOdEGjtJoz2TETy4.jpg",
      "original_language": "en",
      "id": 86752,
      "vote_average": 6.9,
      "overview": "The last in a line of Chosen Ones, a wannabe chef teams up with a homicide detective to unravel an ancient mystery and take down supernatural assassins.",
      "poster_path": "/b3nMqPFY8skSfYLF3xEz8oQZxPa.jpg"
    },
    {
      "original_name": "La casa de papel",
      "genre_ids": [
        80,
        18
      ],
      "name": "Money Heist",
      "popularity": 123.063,
      "origin_country": [
        "ES"
      ],
      "vote_count": 464,
      "first_air_date": "2017-05-02",
      "backdrop_path": "/piuRhGiQBYWgW668eSNJ2ug5uAO.jpg",
      "original_language": "es",
      "id": 71446,
      "vote_average": 8.1,
      "overview": "To carry out the biggest heist in history, a mysterious man called The Professor recruits a band of eight robbers who have a single characteristic: none of them has anything to lose. Five months of seclusion - memorizing every step, every detail, every probability - culminate in eleven days locked up in the National Coinage and Stamp Factory of Spain, surrounded by police forces and with dozens of hostages in their power, to find out whether their suicide wager will lead to everything or nothing.",
      "poster_path": "/MoEKaPFHABtA1xKoOteirGaHl1.jpg"
    },
    {
      "original_name": "Grey's Anatomy",
      "id": 1416,
      "name": "Grey's Anatomy",
      "popularity": 156.601,
      "vote_count": 984,
      "vote_average": 6.3,
      "first_air_date": "2005-03-27",
      "poster_path": "/eqgIOObafPJitt8JNh1LuO2fvqu.jpg",
      "genre_ids": [
        18
      ],
      "original_language": "en",
      "backdrop_path": "/hF9yq8MxaTNLJITo0lwgO7eUoTx.jpg",
      "overview": "Follows the personal and professional lives of a group of doctors at Seattle’s Grey Sloan Memorial Hospital.",
      "origin_country": [
        "US"
      ]
    },
    {
      "original_name": "Law & Order: Special Victims Unit",
      "id": 2734,
      "name": "Law & Order: Special Victims Unit",
      "popularity": 123.185,
      "vote_count": 648,
      "vote_average": 6.3,
      "first_air_date": "1999-09-20",
      "poster_path": "/ydSvHgksuB8Ix0V05QEZBKrnIcg.jpg",
      "genre_ids": [
        80,
        18
      ],
      "original_language": "en",
      "backdrop_path": "/kOvt2BOOwSAQCT8yo3pM3X2GXjh.jpg",
      "overview": "In the criminal justice system, sexually-based offenses are considered especially heinous. In New York City, the dedicated detectives who investigate these vicious felonies are members of an elite squad known as the Special Victims Unit. These are their stories.",
      "origin_country": [
        "US"
      ]
    },
    {
      "original_name": "Pennyworth",
      "genre_ids": [
        80,
        18
      ],
      "name": "Pennyworth",
      "popularity": 99.363,
      "origin_country": [
        "US"
      ],
      "vote_count": 10,
      "first_air_date": "2019-07-28",
      "backdrop_path": "/fOdbXYcLTthRYlOA77LkKI9fxu3.jpg",
      "original_language": "en",
      "id": 79588,
      "vote_average": 7.4,
      "overview": "The origin story of Bruce Wayne’s legendary butler, Alfred Pennyworth, a former British SAS soldier who forms a security company and goes to work with Thomas Wayne, Bruce’s billionaire father, in 1960s London.",
      "poster_path": "/czVjj5W113Aggz8fmtiW5bY1Vsz.jpg"
    },
    {
      "original_name": "Doom Patrol",
      "id": 79501,
      "name": "Doom Patrol",
      "popularity": 107.566,
      "vote_count": 184,
      "vote_average": 6.3,
      "first_air_date": "2019-02-15",
      "poster_path": "/nVN7Dt0Xr78gnJepRsRLaLYklbY.jpg",
      "genre_ids": [
        10765,
        10759
      ],
      "original_language": "en",
      "backdrop_path": "/sAzw6I1G9JUxm86KokIDdQeWtaq.jpg",
      "overview": "The Doom Patrol’s members each suffered horrible accidents that gave them superhuman abilities — but also left them scarred and disfigured. Traumatized and downtrodden, the team found purpose through The Chief, who brought them together to investigate the weirdest phenomena in existence — and to protect Earth from what they find.",
      "origin_country": [
        "US"
      ]
    },
    {
      "original_name": "七つの大罪",
      "id": 62104,
      "name": "The Seven Deadly Sins",
      "popularity": 108.958,
      "vote_count": 111,
      "vote_average": 7.9,
      "first_air_date": "2014-10-05",
      "poster_path": "/gxTojpKEOtue85EEFlozwRbDXwJ.jpg",
      "genre_ids": [
        10759,
        16,
        10765
      ],
      "original_language": "ja",
      "backdrop_path": "/n5Ty1KJIRNCXlDHDjcPpUgp57tr.jpg",
      "overview": "The “Seven Deadly Sins”—a group of evil knights who conspired to overthrow the kingdom of Britannia—were said to have been eradicated by the Holy Knights, although some claim that they still live. Ten years later, the Holy Knights have staged a Coup d'état and assassinated the king, becoming the new, tyrannical rulers of the kingdom. Elizabeth, the king's only daughter, sets out on a journey to find the “Seven Deadly Sins,” and to enlist their help in taking back the kingdom.",
      "origin_country": [
        "JP"
      ]
    },
    {
      "original_name": "Elementary",
      "id": 1415,
      "name": "Elementary",
      "popularity": 129.734,
      "vote_count": 668,
      "vote_average": 7,
      "first_air_date": "2012-09-27",
      "poster_path": "/q9dObe29W4bDpgzUfOOH3ZnzDbR.jpg",
      "genre_ids": [
        18,
        9648,
        80
      ],
      "original_language": "en",
      "backdrop_path": "/7sJrNKwzyJWnFPFpDL9wnZ859LZ.jpg",
      "overview": "A modern-day drama about a crime-solving duo that cracks the NYPD's most impossible cases. Following his fall from grace in London and a stint in rehab, eccentric Sherlock escapes to Manhattan where his wealthy father forces him to live with his worst nightmare - a sober companion, Dr. Watson.",
      "origin_country": [
        "US"
      ]
    },
    {
      "original_name": "ナルト 疾風伝",
      "id": 31910,
      "name": "Naruto Shippūden",
      "popularity": 127.529,
      "vote_count": 238,
      "vote_average": 7.6,
      "first_air_date": "2007-02-15",
      "poster_path": "/zAYRe2bJxpWTVrwwmBc00VFkAf4.jpg",
      "genre_ids": [
        16,
        35,
        18
      ],
      "original_language": "ja",
      "backdrop_path": "/c14vjmndzL9tBdooGsMznMFrFLo.jpg",
      "overview": "Naruto Shippuuden is the continuation of the original animated TV series Naruto.The story revolves around an older and slightly more matured Uzumaki Naruto and his quest to save his friend Uchiha Sasuke from the grips of the snake-like Shinobi, Orochimaru. After 2 and a half years Naruto finally returns to his village of Konoha, and sets about putting his ambitions to work, though it will not be easy, as He has amassed a few (more dangerous) enemies, in the likes of the shinobi organization; Akatsuki.",
      "origin_country": [
        "JP"
      ]
    },
    {
      "original_name": "The Simpsons",
      "id": 456,
      "name": "The Simpsons",
      "popularity": 132.8,
      "vote_count": 2084,
      "vote_average": 7.1,
      "first_air_date": "1989-12-17",
      "poster_path": "/yTZQkSsxUFJZJe67IenRM0AEklc.jpg",
      "genre_ids": [
        16,
        35
      ],
      "original_language": "en",
      "backdrop_path": "/1pP0gg0iNGX06wSs19EQOvzfZIF.jpg",
      "overview": "Set in Springfield, the average American town, the show focuses on the antics and everyday adventures of the Simpson family; Homer, Marge, Bart, Lisa and Maggie, as well as a virtual cast of thousands. Since the beginning, the series has been a pop culture icon, attracting hundreds of celebrities to guest star. The show has also made name for itself in its fearless satirical take on politics, media and American life in general.",
      "origin_country": [
        "US"
      ]
    }
  ]
}